EDA Netlist Writer report for DMM
Thu Jan 11 15:56:00 2024
Quartus Prime Version 22.1std.1 Build 917 02/14/2023 SC Lite Edition


---------------------
; Table of Contents ;
---------------------
  1. Legal Notice
  2. EDA Netlist Writer Summary
  3. Simulation Settings
  4. Simulation Generated Files
  5. EDA Netlist Writer Messages



----------------
; Legal Notice ;
----------------
Copyright (C) 2023  Intel Corporation. All rights reserved.
Your use of Intel Corporation's design tools, logic functions 
and other software and tools, and any partner logic 
functions, and any output files from any of the foregoing 
(including device programming or simulation files), and any 
associated documentation or information are expressly subject 
to the terms and conditions of the Intel Program License 
Subscription Agreement, the Intel Quartus Prime License Agreement,
the Intel FPGA IP License Agreement, or other applicable license
agreement, including, without limitation, that your use is for
the sole purpose of programming logic devices manufactured by
Intel and sold by Intel or its authorized distributors.  Please
refer to the applicable agreement for further details, at
https://fpgasoftware.intel.com/eula.



+-------------------------------------------------------------------+
; EDA Netlist Writer Summary                                        ;
+---------------------------+---------------------------------------+
; EDA Netlist Writer Status ; Successful - Thu Jan 11 15:56:00 2024 ;
; Revision Name             ; DMM                                   ;
; Top-level Entity Name     ; DMM                                   ;
; Family                    ; Cyclone IV E                          ;
; Simulation Files Creation ; Successful                            ;
+---------------------------+---------------------------------------+


+------------------------------------------------------------------------------------------------------------------------------+
; Simulation Settings                                                                                                          ;
+---------------------------------------------------------------------------------------------------+--------------------------+
; Option                                                                                            ; Setting                  ;
+---------------------------------------------------------------------------------------------------+--------------------------+
; Tool Name                                                                                         ; Questa Intel FPGA (VHDL) ;
; Generate functional simulation netlist                                                            ; Off                      ;
; Time scale                                                                                        ; 1 ps                     ;
; Truncate long hierarchy paths                                                                     ; Off                      ;
; Map illegal HDL characters                                                                        ; Off                      ;
; Flatten buses into individual nodes                                                               ; Off                      ;
; Maintain hierarchy                                                                                ; Off                      ;
; Bring out device-wide set/reset signals as ports                                                  ; Off                      ;
; Enable glitch filtering                                                                           ; Off                      ;
; Do not write top level VHDL entity                                                                ; Off                      ;
; Disable detection of setup and hold time violations in the input registers of bi-directional pins ; Off                      ;
; Architecture name in VHDL output netlist                                                          ; structure                ;
; Generate third-party EDA tool command script for RTL functional simulation                        ; Off                      ;
; Generate third-party EDA tool command script for gate-level simulation                            ; Off                      ;
+---------------------------------------------------------------------------------------------------+--------------------------+


+---------------------------------------------------------------------------+
; Simulation Generated Files                                                ;
+---------------------------------------------------------------------------+
; Generated Files                                                           ;
+---------------------------------------------------------------------------+
; /home/mrqs/GIT/DMM/SOFT/simulation/qsim//DMM_7_1200mv_100c_slow.vho       ;
; /home/mrqs/GIT/DMM/SOFT/simulation/qsim//DMM_7_1200mv_-40c_slow.vho       ;
; /home/mrqs/GIT/DMM/SOFT/simulation/qsim//DMM_min_1200mv_-40c_fast.vho     ;
; /home/mrqs/GIT/DMM/SOFT/simulation/qsim//DMM.vho                          ;
; /home/mrqs/GIT/DMM/SOFT/simulation/qsim//DMM_7_1200mv_100c_vhd_slow.sdo   ;
; /home/mrqs/GIT/DMM/SOFT/simulation/qsim//DMM_7_1200mv_-40c_vhd_slow.sdo   ;
; /home/mrqs/GIT/DMM/SOFT/simulation/qsim//DMM_min_1200mv_-40c_vhd_fast.sdo ;
; /home/mrqs/GIT/DMM/SOFT/simulation/qsim//DMM_vhd.sdo                      ;
+---------------------------------------------------------------------------+


+-----------------------------+
; EDA Netlist Writer Messages ;
+-----------------------------+
Info: *******************************************************************
Info: Running Quartus Prime EDA Netlist Writer
    Info: Version 22.1std.1 Build 917 02/14/2023 SC Lite Edition
    Info: Copyright (C) 2023  Intel Corporation. All rights reserved.
    Info: Your use of Intel Corporation's design tools, logic functions 
    Info: and other software and tools, and any partner logic 
    Info: functions, and any output files from any of the foregoing 
    Info: (including device programming or simulation files), and any 
    Info: associated documentation or information are expressly subject 
    Info: to the terms and conditions of the Intel Program License 
    Info: Subscription Agreement, the Intel Quartus Prime License Agreement,
    Info: the Intel FPGA IP License Agreement, or other applicable license
    Info: agreement, including, without limitation, that your use is for
    Info: the sole purpose of programming logic devices manufactured by
    Info: Intel and sold by Intel or its authorized distributors.  Please
    Info: refer to the applicable agreement for further details, at
    Info: https://fpgasoftware.intel.com/eula.
    Info: Processing started: Thu Jan 11 15:55:59 2024
Info: Command: quartus_eda --write_settings_files=off --simulation=on --functional=off --flatten_buses=off --timescale=1ps --tool=modelsim_oem --format=vhdl --output_directory=simulation/qsim/ DMM -c DMM
Warning (18236): Number of processors has not been specified which may cause overloading on shared machines.  Set the global assignment NUM_PARALLEL_PROCESSORS in your QSF to an appropriate value for best performance.
Info (204019): Generated file DMM_7_1200mv_100c_slow.vho in folder "/home/mrqs/GIT/DMM/SOFT/simulation/qsim//" for EDA simulation tool
Info (204019): Generated file DMM_7_1200mv_-40c_slow.vho in folder "/home/mrqs/GIT/DMM/SOFT/simulation/qsim//" for EDA simulation tool
Info (204019): Generated file DMM_min_1200mv_-40c_fast.vho in folder "/home/mrqs/GIT/DMM/SOFT/simulation/qsim//" for EDA simulation tool
Info (204019): Generated file DMM.vho in folder "/home/mrqs/GIT/DMM/SOFT/simulation/qsim//" for EDA simulation tool
Info (204019): Generated file DMM_7_1200mv_100c_vhd_slow.sdo in folder "/home/mrqs/GIT/DMM/SOFT/simulation/qsim//" for EDA simulation tool
Info (204019): Generated file DMM_7_1200mv_-40c_vhd_slow.sdo in folder "/home/mrqs/GIT/DMM/SOFT/simulation/qsim//" for EDA simulation tool
Info (204019): Generated file DMM_min_1200mv_-40c_vhd_fast.sdo in folder "/home/mrqs/GIT/DMM/SOFT/simulation/qsim//" for EDA simulation tool
Info (204019): Generated file DMM_vhd.sdo in folder "/home/mrqs/GIT/DMM/SOFT/simulation/qsim//" for EDA simulation tool
Info: Quartus Prime EDA Netlist Writer was successful. 0 errors, 1 warning
    Info: Peak virtual memory: 596 megabytes
    Info: Processing ended: Thu Jan 11 15:56:00 2024
    Info: Elapsed time: 00:00:01
    Info: Total CPU time (on all processors): 00:00:01


